Sorted vector:
Feature 108: 3.93172
Feature 17: 3.6315
Feature 102: 3.52414
Feature 182: 3.45734
Feature 198: 3.28963
Feature 113: 3.22864
Feature 197: 3.16431
Feature 107: 3.14197
Feature 33: 3.1189
Feature 30: 3.07451
Feature 185: 3.05978
Feature 2: 2.96978
Feature 12: 2.96026
Feature 183: 2.85243
Feature 20: 2.84868
Feature 18: 2.84566
Feature 210: 2.82436
Feature 180: 2.80925
Feature 89: 2.76945
Feature 77: 2.76505
Feature 104: 2.76313
Feature 35: 2.73082
Feature 213: 2.67828
Feature 138: 2.63254
Feature 0: 2.59213
Feature 74: 2.55461
Feature 15: 2.52895
Feature 32: 2.52346
Feature 5: 2.50809
Feature 111: 2.45147
Feature 3: 2.37735
Feature 212: 2.28228
Feature 120: 2.27422
Feature 14: 2.2727
Feature 90: 2.26434
Feature 95: 2.24392
Feature 125: 2.1983
Feature 200: 2.19636
Feature 203: 2.13831
Feature 105: 2.1215
Feature 126: 2.09632
Feature 110: 2.01172
Feature 141: 1.98681
Feature 195: 1.98668
Feature 194: 1.97028
Feature 72: 1.92982
Feature 181: 1.86958
Feature 192: 1.82707
Feature 143: 1.82224
Feature 75: 1.63397
Feature 6: 1.61324
Feature 34: 1.59956
Feature 163: 1.59158
Feature 209: 1.5757
Feature 92: 1.53075
Feature 201: 1.52212
Feature 1: 1.51389
Feature 66: 1.51093
Feature 11: 1.42486
Feature 23: 1.38904
Feature 204: 1.3736
Feature 84: 1.36797
Feature 112: 1.3302
Feature 116: 1.31612
Feature 21: 1.25785
Feature 73: 1.19073
Feature 9: 1.15677
Feature 214: 1.08755
Feature 215: 1.08755
Feature 123: 1.08263
Feature 174: 1.07508
Feature 206: 1.06172
Feature 164: 1.03605
Feature 196: 1.03515
Feature 86: 1.0225
Feature 99: 1.002
Feature 167: 1.00058
Feature 39: 0.959544
Feature 13: 0.945314
Feature 131: 0.927911
Feature 4: 0.921187
Feature 176: 0.904929
Feature 52: 0.89865
Feature 186: 0.889904
Feature 71: 0.857976
Feature 114: 0.821293
Feature 134: 0.817678
Feature 81: 0.801955
Feature 40: 0.781037
Feature 54: 0.742032
Feature 76: 0.740294
Feature 177: 0.735145
Feature 129: 0.725526
Feature 83: 0.724837
Feature 69: 0.722418
Feature 156: 0.719815
Feature 38: 0.705279
Feature 29: 0.703258
Feature 26: 0.683097
Feature 121: 0.660015
Feature 41: 0.656966
Feature 19: 0.652904
Feature 162: 0.646262
Feature 199: 0.646049
Feature 132: 0.644636
Feature 24: 0.644222
Feature 36: 0.642275
Feature 16: 0.633965
Feature 193: 0.6279
Feature 31: 0.617443
Feature 161: 0.609088
Feature 211: 0.60885
Feature 91: 0.608718
Feature 207: 0.603335
Feature 179: 0.589497
Feature 191: 0.584676
Feature 59: 0.576241
Feature 152: 0.573965
Feature 124: 0.558839
Feature 188: 0.554745
Feature 94: 0.540513
Feature 117: 0.525609
Feature 78: 0.524028
Feature 88: 0.519725
Feature 165: 0.519725
Feature 139: 0.514282
Feature 48: 0.497305
Feature 51: 0.489827
Feature 189: 0.455285
Feature 184: 0.434531
Feature 101: 0.426991
Feature 147: 0.426493
Feature 53: 0.415638
Feature 68: 0.413764
Feature 56: 0.406298
Feature 149: 0.396328
Feature 106: 0.392956
Feature 175: 0.382552
Feature 27: 0.368986
Feature 142: 0.365926
Feature 202: 0.35465
Feature 130: 0.353966
Feature 93: 0.353966
Feature 119: 0.353966
Feature 127: 0.328032
Feature 109: 0.328032
Feature 60: 0.318247
Feature 159: 0.290862
Feature 146: 0.285228
Feature 96: 0.271614
Feature 122: 0.265128
Feature 118: 0.243746
Feature 50: 0.235566
Feature 98: 0.219573
Feature 135: 0.217729
Feature 128: 0.17762
Feature 8: 0.131896
Feature 58: 0.131896
Feature 158: 0.130533
Feature 87: 0.122624
Feature 171: 0.112243
Feature 57: 0.108714
Feature 148: 0.101144
Feature 137: 0.0932064
Feature 37: 0.0924281
Feature 67: 0.0768083
Feature 79: 0.073741
Feature 80: 0.0614803
Feature 155: 0.0469087
Feature 173: 0.0436053
Feature 136: 0.0402702
Feature 190: 0.00113733
Feature 133: -0.00519482
Feature 22: -0.0231106
Feature 85: -0.027008
Feature 25: -0.0464261
Feature 28: -0.0497547
Feature 157: -0.0578557
Feature 10: -0.0766147
Feature 103: -0.0823377
Feature 205: -0.0851578
Feature 168: -0.0876366
Feature 153: -0.0911572
Feature 97: -0.0952982
Feature 55: -0.124587
Feature 44: -0.140713
Feature 144: -0.149676
Feature 100: -0.155116
Feature 63: -0.155983
Feature 150: -0.161963
Feature 178: -0.169341
Feature 42: -0.18929
Feature 170: -0.212996
Feature 166: -0.240242
Feature 160: -0.275419
Feature 62: -0.288103
Feature 140: -0.292433
Feature 115: -0.338155
Feature 45: -0.363792
Feature 82: -0.392689
Feature 47: -0.432421
Feature 65: -0.447028
Feature 70: -0.464628
Feature 187: -0.466195
Feature 208: -0.523418
Feature 172: -0.523435
Feature 7: -0.531436
Feature 145: -0.553698
Feature 151: -0.555223
Feature 46: -0.564366
Feature 64: -0.627505
Feature 49: -0.689874
Feature 154: -0.723919
Feature 169: -0.896146
Feature 61: -1.00927
Feature 43: -1.0163



Not sorted vector:
Feature 0: 2.59213
Feature 1: 1.51389
Feature 2: 2.96978
Feature 3: 2.37735
Feature 4: 0.921187
Feature 5: 2.50809
Feature 6: 1.61324
Feature 7: -0.531436
Feature 8: 0.131896
Feature 9: 1.15677
Feature 10: -0.0766147
Feature 11: 1.42486
Feature 12: 2.96026
Feature 13: 0.945314
Feature 14: 2.2727
Feature 15: 2.52895
Feature 16: 0.633965
Feature 17: 3.6315
Feature 18: 2.84566
Feature 19: 0.652904
Feature 20: 2.84868
Feature 21: 1.25785
Feature 22: -0.0231106
Feature 23: 1.38904
Feature 24: 0.644222
Feature 25: -0.0464261
Feature 26: 0.683097
Feature 27: 0.368986
Feature 28: -0.0497547
Feature 29: 0.703258
Feature 30: 3.07451
Feature 31: 0.617443
Feature 32: 2.52346
Feature 33: 3.1189
Feature 34: 1.59956
Feature 35: 2.73082
Feature 36: 0.642275
Feature 37: 0.0924281
Feature 38: 0.705279
Feature 39: 0.959544
Feature 40: 0.781037
Feature 41: 0.656966
Feature 42: -0.18929
Feature 43: -1.0163
Feature 44: -0.140713
Feature 45: -0.363792
Feature 46: -0.564366
Feature 47: -0.432421
Feature 48: 0.497305
Feature 49: -0.689874
Feature 50: 0.235566
Feature 51: 0.489827
Feature 52: 0.89865
Feature 53: 0.415638
Feature 54: 0.742032
Feature 55: -0.124587
Feature 56: 0.406298
Feature 57: 0.108714
Feature 58: 0.131896
Feature 59: 0.576241
Feature 60: 0.318247
Feature 61: -1.00927
Feature 62: -0.288103
Feature 63: -0.155983
Feature 64: -0.627505
Feature 65: -0.447028
Feature 66: 1.51093
Feature 67: 0.0768083
Feature 68: 0.413764
Feature 69: 0.722418
Feature 70: -0.464628
Feature 71: 0.857976
Feature 72: 1.92982
Feature 73: 1.19073
Feature 74: 2.55461
Feature 75: 1.63397
Feature 76: 0.740294
Feature 77: 2.76505
Feature 78: 0.524028
Feature 79: 0.073741
Feature 80: 0.0614803
Feature 81: 0.801955
Feature 82: -0.392689
Feature 83: 0.724837
Feature 84: 1.36797
Feature 85: -0.027008
Feature 86: 1.0225
Feature 87: 0.122624
Feature 88: 0.519725
Feature 89: 2.76945
Feature 90: 2.26434
Feature 91: 0.608718
Feature 92: 1.53075
Feature 93: 0.353966
Feature 94: 0.540513
Feature 95: 2.24392
Feature 96: 0.271614
Feature 97: -0.0952982
Feature 98: 0.219573
Feature 99: 1.002
Feature 100: -0.155116
Feature 101: 0.426991
Feature 102: 3.52414
Feature 103: -0.0823377
Feature 104: 2.76313
Feature 105: 2.1215
Feature 106: 0.392956
Feature 107: 3.14197
Feature 108: 3.93172
Feature 109: 0.328032
Feature 110: 2.01172
Feature 111: 2.45147
Feature 112: 1.3302
Feature 113: 3.22864
Feature 114: 0.821293
Feature 115: -0.338155
Feature 116: 1.31612
Feature 117: 0.525609
Feature 118: 0.243746
Feature 119: 0.353966
Feature 120: 2.27422
Feature 121: 0.660015
Feature 122: 0.265128
Feature 123: 1.08263
Feature 124: 0.558839
Feature 125: 2.1983
Feature 126: 2.09632
Feature 127: 0.328032
Feature 128: 0.17762
Feature 129: 0.725526
Feature 130: 0.353966
Feature 131: 0.927911
Feature 132: 0.644636
Feature 133: -0.00519482
Feature 134: 0.817678
Feature 135: 0.217729
Feature 136: 0.0402702
Feature 137: 0.0932064
Feature 138: 2.63254
Feature 139: 0.514282
Feature 140: -0.292433
Feature 141: 1.98681
Feature 142: 0.365926
Feature 143: 1.82224
Feature 144: -0.149676
Feature 145: -0.553698
Feature 146: 0.285228
Feature 147: 0.426493
Feature 148: 0.101144
Feature 149: 0.396328
Feature 150: -0.161963
Feature 151: -0.555223
Feature 152: 0.573965
Feature 153: -0.0911572
Feature 154: -0.723919
Feature 155: 0.0469087
Feature 156: 0.719815
Feature 157: -0.0578557
Feature 158: 0.130533
Feature 159: 0.290862
Feature 160: -0.275419
Feature 161: 0.609088
Feature 162: 0.646262
Feature 163: 1.59158
Feature 164: 1.03605
Feature 165: 0.519725
Feature 166: -0.240242
Feature 167: 1.00058
Feature 168: -0.0876366
Feature 169: -0.896146
Feature 170: -0.212996
Feature 171: 0.112243
Feature 172: -0.523435
Feature 173: 0.0436053
Feature 174: 1.07508
Feature 175: 0.382552
Feature 176: 0.904929
Feature 177: 0.735145
Feature 178: -0.169341
Feature 179: 0.589497
Feature 180: 2.80925
Feature 181: 1.86958
Feature 182: 3.45734
Feature 183: 2.85243
Feature 184: 0.434531
Feature 185: 3.05978
Feature 186: 0.889904
Feature 187: -0.466195
Feature 188: 0.554745
Feature 189: 0.455285
Feature 190: 0.00113733
Feature 191: 0.584676
Feature 192: 1.82707
Feature 193: 0.6279
Feature 194: 1.97028
Feature 195: 1.98668
Feature 196: 1.03515
Feature 197: 3.16431
Feature 198: 3.28963
Feature 199: 0.646049
Feature 200: 2.19636
Feature 201: 1.52212
Feature 202: 0.35465
Feature 203: 2.13831
Feature 204: 1.3736
Feature 205: -0.0851578
Feature 206: 1.06172
Feature 207: 0.603335
Feature 208: -0.523418
Feature 209: 1.5757
Feature 210: 2.82436
Feature 211: 0.60885
Feature 212: 2.28228
Feature 213: 2.67828
Feature 214: 1.08755
Feature 215: 1.08755
