Sorted vector:
Feature 180: 13.504
Feature 210: 10.7024
Feature 5: 9.45079
Feature 35: 8.30655
Feature 17: 8.13578
Feature 192: 7.6296
Feature 30: 7.47251
Feature 102: 7.17549
Feature 182: 7.14753
Feature 138: 7.03618
Feature 183: 6.8842
Feature 23: 6.77261
Feature 32: 6.36017
Feature 77: 6.10816
Feature 185: 6.05272
Feature 3: 5.99091
Feature 107: 5.93226
Feature 104: 5.50961
Feature 113: 5.45522
Feature 198: 5.38431
Feature 125: 5.37998
Feature 20: 5.08506
Feature 89: 4.85094
Feature 33: 4.37413
Feature 105: 4.32977
Feature 197: 4.2835
Feature 212: 4.24033
Feature 18: 4.09108
Feature 15: 4.00181
Feature 120: 3.93753
Feature 90: 3.88749
Feature 108: 3.86398
Feature 2: 3.72516
Feature 0: 3.64005
Feature 200: 3.631
Feature 95: 3.61453
Feature 111: 3.53985
Feature 195: 3.37062
Feature 194: 3.21436
Feature 110: 3.05389
Feature 72: 3.05043
Feature 74: 2.97318
Feature 126: 2.60737
Feature 14: 2.3912
Feature 75: 2.31509
Feature 92: 2.30203
Feature 143: 2.14344
Feature 12: 2.05887
Feature 213: 1.7319
Feature 141: 1.62367
Feature 201: 1.61763
Feature 203: 1.6087
Feature 21: 1.44881
Feature 66: 1.34099
Feature 11: 1.17506
Feature 181: 0.853847
Feature 112: 0.817689
Feature 1: 0.807556
Feature 34: 0.701067
Feature 84: 0.653421
Feature 206: 0.64856
Feature 83: 0.647012
Feature 204: 0.627809
Feature 9: 0.613563
Feature 13: 0.591482
Feature 86: 0.573657
Feature 54: 0.556751
Feature 73: 0.549133
Feature 4: 0.503253
Feature 6: 0.473142
Feature 162: 0.430938
Feature 38: 0.423949
Feature 131: 0.400416
Feature 71: 0.393958
Feature 119: 0.388952
Feature 106: 0.381793
Feature 69: 0.373231
Feature 123: 0.367596
Feature 174: 0.360413
Feature 214: 0.359301
Feature 215: 0.359301
Feature 209: 0.353182
Feature 59: 0.348296
Feature 68: 0.342032
Feature 161: 0.330592
Feature 16: 0.326819
Feature 191: 0.302876
Feature 132: 0.300675
Feature 193: 0.299925
Feature 189: 0.260865
Feature 149: 0.23015
Feature 109: 0.228312
Feature 142: 0.224369
Feature 147: 0.219871
Feature 26: 0.217791
Feature 177: 0.203836
Feature 199: 0.202288
Feature 202: 0.177474
Feature 78: 0.175103
Feature 53: 0.17491
Feature 207: 0.161173
Feature 31: 0.156795
Feature 156: 0.152127
Feature 24: 0.142743
Feature 22: 0.127337
Feature 117: 0.123637
Feature 8: 0.120831
Feature 146: 0.114712
Feature 36: 0.0586741
Feature 41: 0.0452754
Feature 144: 0.00800542
Feature 178: -0.0479358
Feature 205: -0.0658814
Feature 37: -0.0681307
Feature 148: -0.0893898
Feature 103: -0.199313
Feature 137: -0.211067
Feature 179: -0.217501
Feature 96: -0.25049
Feature 10: -0.270394
Feature 160: -0.27216
Feature 184: -0.335502
Feature 98: -0.340267
Feature 70: -0.340629
Feature 168: -0.417104
Feature 158: -0.426754
Feature 129: -0.440032
Feature 208: -0.441096
Feature 211: -0.458921
Feature 55: -0.480906
Feature 47: -0.516966
Feature 56: -0.586766
Feature 62: -0.60118
Feature 7: -0.652937
Feature 153: -0.724502
Feature 136: -0.745858
Feature 155: -0.758725
Feature 45: -0.810434
Feature 60: -0.811812
Feature 150: -0.817762
Feature 166: -0.829927
Feature 187: -0.861368
Feature 140: -0.877718
Feature 67: -0.886134
Feature 85: -0.89489
Feature 145: -0.901492
Feature 130: -0.943527
Feature 135: -0.96036
Feature 159: -0.987883
Feature 80: -1.02636
Feature 65: -1.07331
Feature 57: -1.21719
Feature 61: -1.33337
Feature 172: -1.3587
Feature 170: -1.41082
Feature 58: -1.48216
Feature 82: -1.49735
Feature 49: -1.52301
Feature 154: -1.57472
Feature 25: -1.60624
Feature 134: -1.61083
Feature 87: -1.67238
Feature 122: -1.70353
Feature 91: -1.72218
Feature 28: -1.73016
Feature 157: -1.89008
Feature 79: -1.98752
Feature 42: -2.11403
Feature 133: -2.23917
Feature 81: -2.36336
Feature 139: -2.37212
Feature 43: -2.43621
Feature 190: -2.43994
Feature 94: -2.52896
Feature 19: -2.54524
Feature 88: -2.61194
Feature 121: -2.61378
Feature 29: -2.71045
Feature 48: -2.71207
Feature 97: -2.90836
Feature 186: -3.08025
Feature 50: -3.13498
Feature 171: -3.23789
Feature 76: -3.27992
Feature 115: -3.33132
Feature 27: -3.38046
Feature 165: -3.39398
Feature 118: -3.50076
Feature 46: -3.59596
Feature 124: -3.79919
Feature 39: -3.88696
Feature 188: -3.94619
Feature 173: -4.00111
Feature 152: -4.05468
Feature 63: -4.21934
Feature 164: -4.32561
Feature 101: -4.42958
Feature 128: -4.50144
Feature 114: -4.7469
Feature 64: -4.83433
Feature 167: -4.96534
Feature 44: -5.09829
Feature 169: -5.10821
Feature 151: -5.32247
Feature 127: -5.46499
Feature 51: -5.92195
Feature 175: -6.05154
Feature 176: -6.33635
Feature 93: -6.40148
Feature 100: -6.40315
Feature 40: -6.66716
Feature 196: -9.4758
Feature 116: -11.1886
Feature 52: -12.0993
Feature 163: -12.2314
Feature 99: -13.6296



Not sorted vector:
Feature 0: 3.64005
Feature 1: 0.807556
Feature 2: 3.72516
Feature 3: 5.99091
Feature 4: 0.503253
Feature 5: 9.45079
Feature 6: 0.473142
Feature 7: -0.652937
Feature 8: 0.120831
Feature 9: 0.613563
Feature 10: -0.270394
Feature 11: 1.17506
Feature 12: 2.05887
Feature 13: 0.591482
Feature 14: 2.3912
Feature 15: 4.00181
Feature 16: 0.326819
Feature 17: 8.13578
Feature 18: 4.09108
Feature 19: -2.54524
Feature 20: 5.08506
Feature 21: 1.44881
Feature 22: 0.127337
Feature 23: 6.77261
Feature 24: 0.142743
Feature 25: -1.60624
Feature 26: 0.217791
Feature 27: -3.38046
Feature 28: -1.73016
Feature 29: -2.71045
Feature 30: 7.47251
Feature 31: 0.156795
Feature 32: 6.36017
Feature 33: 4.37413
Feature 34: 0.701067
Feature 35: 8.30655
Feature 36: 0.0586741
Feature 37: -0.0681307
Feature 38: 0.423949
Feature 39: -3.88696
Feature 40: -6.66716
Feature 41: 0.0452754
Feature 42: -2.11403
Feature 43: -2.43621
Feature 44: -5.09829
Feature 45: -0.810434
Feature 46: -3.59596
Feature 47: -0.516966
Feature 48: -2.71207
Feature 49: -1.52301
Feature 50: -3.13498
Feature 51: -5.92195
Feature 52: -12.0993
Feature 53: 0.17491
Feature 54: 0.556751
Feature 55: -0.480906
Feature 56: -0.586766
Feature 57: -1.21719
Feature 58: -1.48216
Feature 59: 0.348296
Feature 60: -0.811812
Feature 61: -1.33337
Feature 62: -0.60118
Feature 63: -4.21934
Feature 64: -4.83433
Feature 65: -1.07331
Feature 66: 1.34099
Feature 67: -0.886134
Feature 68: 0.342032
Feature 69: 0.373231
Feature 70: -0.340629
Feature 71: 0.393958
Feature 72: 3.05043
Feature 73: 0.549133
Feature 74: 2.97318
Feature 75: 2.31509
Feature 76: -3.27992
Feature 77: 6.10816
Feature 78: 0.175103
Feature 79: -1.98752
Feature 80: -1.02636
Feature 81: -2.36336
Feature 82: -1.49735
Feature 83: 0.647012
Feature 84: 0.653421
Feature 85: -0.89489
Feature 86: 0.573657
Feature 87: -1.67238
Feature 88: -2.61194
Feature 89: 4.85094
Feature 90: 3.88749
Feature 91: -1.72218
Feature 92: 2.30203
Feature 93: -6.40148
Feature 94: -2.52896
Feature 95: 3.61453
Feature 96: -0.25049
Feature 97: -2.90836
Feature 98: -0.340267
Feature 99: -13.6296
Feature 100: -6.40315
Feature 101: -4.42958
Feature 102: 7.17549
Feature 103: -0.199313
Feature 104: 5.50961
Feature 105: 4.32977
Feature 106: 0.381793
Feature 107: 5.93226
Feature 108: 3.86398
Feature 109: 0.228312
Feature 110: 3.05389
Feature 111: 3.53985
Feature 112: 0.817689
Feature 113: 5.45522
Feature 114: -4.7469
Feature 115: -3.33132
Feature 116: -11.1886
Feature 117: 0.123637
Feature 118: -3.50076
Feature 119: 0.388952
Feature 120: 3.93753
Feature 121: -2.61378
Feature 122: -1.70353
Feature 123: 0.367596
Feature 124: -3.79919
Feature 125: 5.37998
Feature 126: 2.60737
Feature 127: -5.46499
Feature 128: -4.50144
Feature 129: -0.440032
Feature 130: -0.943527
Feature 131: 0.400416
Feature 132: 0.300675
Feature 133: -2.23917
Feature 134: -1.61083
Feature 135: -0.96036
Feature 136: -0.745858
Feature 137: -0.211067
Feature 138: 7.03618
Feature 139: -2.37212
Feature 140: -0.877718
Feature 141: 1.62367
Feature 142: 0.224369
Feature 143: 2.14344
Feature 144: 0.00800542
Feature 145: -0.901492
Feature 146: 0.114712
Feature 147: 0.219871
Feature 148: -0.0893898
Feature 149: 0.23015
Feature 150: -0.817762
Feature 151: -5.32247
Feature 152: -4.05468
Feature 153: -0.724502
Feature 154: -1.57472
Feature 155: -0.758725
Feature 156: 0.152127
Feature 157: -1.89008
Feature 158: -0.426754
Feature 159: -0.987883
Feature 160: -0.27216
Feature 161: 0.330592
Feature 162: 0.430938
Feature 163: -12.2314
Feature 164: -4.32561
Feature 165: -3.39398
Feature 166: -0.829927
Feature 167: -4.96534
Feature 168: -0.417104
Feature 169: -5.10821
Feature 170: -1.41082
Feature 171: -3.23789
Feature 172: -1.3587
Feature 173: -4.00111
Feature 174: 0.360413
Feature 175: -6.05154
Feature 176: -6.33635
Feature 177: 0.203836
Feature 178: -0.0479358
Feature 179: -0.217501
Feature 180: 13.504
Feature 181: 0.853847
Feature 182: 7.14753
Feature 183: 6.8842
Feature 184: -0.335502
Feature 185: 6.05272
Feature 186: -3.08025
Feature 187: -0.861368
Feature 188: -3.94619
Feature 189: 0.260865
Feature 190: -2.43994
Feature 191: 0.302876
Feature 192: 7.6296
Feature 193: 0.299925
Feature 194: 3.21436
Feature 195: 3.37062
Feature 196: -9.4758
Feature 197: 4.2835
Feature 198: 5.38431
Feature 199: 0.202288
Feature 200: 3.631
Feature 201: 1.61763
Feature 202: 0.177474
Feature 203: 1.6087
Feature 204: 0.627809
Feature 205: -0.0658814
Feature 206: 0.64856
Feature 207: 0.161173
Feature 208: -0.441096
Feature 209: 0.353182
Feature 210: 10.7024
Feature 211: -0.458921
Feature 212: 4.24033
Feature 213: 1.7319
Feature 214: 0.359301
Feature 215: 0.359301
